{
	"renderOutput": {
		"type": "div",
		"props": {
			"className": "row",
			"children": [
				{
					"type": "CodeFileToolbar",
					"props": {
						"repo": "aRepo",
						"rev": "aRev",
						"tree": "aTree",
						"file": {
							"Entry": {
								"SourceCode": {
									"Lines": [
										"someLine"
									]
								}
							},
							"EntrySpec": {
								"RepoRev": {
									"CommitID": "123abc"
								}
							}
						}
					}
				},
				{
					"type": "div",
					"props": {
						"className": "code-view-react",
						"children": [
							{
								"type": "CodeListing",
								"props": {
									"lines": [
										"someLine"
									],
									"lineNumbers": true,
									"selectedDef": "someDef",
									"onLineButtonClick": {
										"dispatched": [
											{
												"$constructor": "SelectLine",
												"line": {
													"currentTarget": {
														"href": "[currentTarget.href]"
													},
													"view": {
														"scrollX": 11,
														"scrollY": 22
													},
													"clientX": 10,
													"clientY": 20
												}
											}
										]
									}
								}
							}
						]
					}
				}
			]
		}
	},
	"dispatched": [
		{
			"$constructor": "WantFile",
			"repo": "aRepo",
			"rev": "aRev",
			"tree": "aTree"
		},
		{
			"$constructor": "WantDef",
			"url": "someDef"
		}
	]
}