{
	"renderOutput": {
		"type": "div",
		"props": {
			"className": "commit single media repo-build",
			"children": [
				{
					"type": "a",
					"props": {
						"className": "pull-left",
						"children": [
							{
								"type": "img",
								"props": {
									"className": "media-object avatar img-rounded",
									"src": "http://example.com/avatar.png"
								}
							}
						]
					}
				},
				{
					"type": "div",
					"props": {
						"className": "media-body",
						"children": [
							{
								"type": "h4",
								"props": {
									"className": "media-heading commit-title",
									"children": [
										{
											"type": "a",
											"props": {
												"href": "/undefined/.commits/abc",
												"children": [
													"msg"
												]
											}
										}
									]
								}
							},
							{
								"type": "p",
								"props": {
									"className": "author committer",
									"children": [
										{
											"type": "span",
											"props": {
												"className": "date",
												"children": [
													"authored ",
													{
														"type": "TimeAgo",
														"props": {
															"time": ""
														}
													}
												]
											}
										},
										{
											"type": "a",
											"props": {
												"href": "/undefined/.commits/abc",
												"children": [
													{
														"type": "tt",
														"props": {
															"className": "commit-id pull-right",
															"children": [
																"abc"
															]
														}
													}
												]
											}
										}
									]
								}
							}
						]
					}
				}
			]
		}
	}
}