{
	"renderOutput": {
		"type": "div",
		"props": {
			"className": "token-search-results",
			"children": [
				{
					"type": "p",
					"props": {
						"className": "summary",
						"children": [
							"1 definition result for \"aQuery\""
						]
					}
				},
				{
					"type": "div",
					"key": "aRepo/.def/aFunction",
					"props": {
						"className": "token-search-result",
						"children": [
							{
								"type": "hr",
								"props": {}
							},
							{
								"type": "a",
								"props": {
									"href": "/undefined/.undefined/undefined/.def/undefined",
									"children": [
										{
											"type": "code",
											"props": {
												"children": [
													"func "
												]
											}
										},
										{
											"type": "code",
											"props": {
												"dangerouslySetInnerHTML": {
													"__html": "func <span class=\"name\">aFunction</span>"
												}
											}
										}
									]
								}
							},
							{
								"type": "p",
								"props": {
									"dangerouslySetInnerHTML": {
										"__html": "This is a function."
									}
								}
							}
						]
					}
				}
			]
		}
	}
}